6
6 idle
1 6 38 51
44 1 37 56
86 5 37 52
128 7 37 50
170 9 37 48
212 6 37 51
17 running
0 984 39 40
45 982 35 42
85 976 39 48
144 970 52 53
201 977 47 47
253 974 47 50
305 964 49 60
359 967 40 57
404 973 32 51
441 973 41 51
487 971 52 53
544 976 51 48
600 973 51 51
656 960 47 64
710 964 41 60
753 967 41 57
799 972 40 52
6 shoot
1 1444 50 47
56 1444 50 47
240 1441 51 50
296 1442 47 49
348 1441 52 50
405 1445 52 46
7 jump
1 1056 57 49
63 1034 37 71
105 1036 34 69
144 1043 40 62
189 1052 50 53
244 1059 49 46
298 1055 58 50
6 die
113 5021 78 64
196 5022 79 63
280 5019 80 66
365 5021 59 64
429 5022 79 63
513 5027 40 43
3 bullet
149 3474 10 7
164 3471 12 10
181 3473 16 8